simulation/qsim/Lab2.msim.vcd
$comment
	File created using the following command:
		vcd file Lab2.msim.vcd -direction
$end
$date
	Wed Sep 18 14:40:42 2024
$end
$version
	ModelSim Version 10.3d
$end
$timescale
	1ps
$end

$scope module Lab2_vlg_vec_tst $end
$var reg 1 ! clock $end
$var reg 1 " in $end
$var wire 1 # out $end
$var wire 1 $ sampler $end

$scope module i1 $end
$var wire 1 % gnd $end
$var wire 1 & vcc $end
$var wire 1 ' unknown $end
$var tri1 1 ( devclrn $end
$var tri1 1 ) devpor $end
$var tri1 1 * devoe $end
$var wire 1 + out~output_o $end
$var wire 1 , clock~input_o $end
$var wire 1 - in~input_o $end
$var wire 1 . inst~q $end
$upscope $end
$upscope $end
$enddefinitions $end
#0
$dumpvars
0!
0"
0#
x$
0%
1&
x'
1(
1)
1*
0+
0,
0-
0.
$end
#10000
1!
0$
1,
#20000
0!
1$
0,
#30000
1"
1!
1-
0$
1,
1.
1+
1#
#40000
0!
1$
0,
#50000
1!
0$
1,
#60000
0"
0!
0-
1$
0,
#70000
1!
0$
1,
0.
0+
0#
#80000
0!
1$
0,
#90000
1"
1!
1-
0$
1,
1.
1+
1#
#100000
0"
0!
0-
1$
0,
#110000
1!
0$
1,
0.
0+
0#
#120000
0!
1$
0,
#130000
1"
1!
1-
0$
1,
1.
1+
1#
#140000
0!
1$
0,
#150000
1!
0$
1,
#160000
0"
0!
0-
1$
0,
#170000
1!
0$
1,
0.
0+
0#
#180000
1"
0!
1-
1$
0,
#190000
1!
0$
1,
1.
1+
1#
#200000
0"
0!
0-
1$
0,
#210000
1!
0$
1,
0.
0+
0#
#220000
0!
1$
0,
#230000
1!
0$
1,
#240000
1"
0!
1-
1$
0,
#250000
0"
1!
0-
0$
1,
#260000
0!
1$
0,
#270000
1!
0$
1,
#280000
0!
1$
0,
#290000
1!
0$
1,
#300000
0!
1$
0,
#310000
1!
0$
1,
#320000
0!
1$
0,
#330000
1!
0$
1,
#340000
0!
1$
0,
#350000
1!
0$
1,
#360000
0!
1$
0,
#370000
1!
0$
1,
#380000
0!
1$
0,
#390000
1!
0$
1,
#400000
0!
1$
0,
#410000
1!
0$
1,
#420000
0!
1$
0,
#430000
1!
0$
1,
#440000
0!
1$
0,
#450000
1!
0$
1,
#460000
0!
1$
0,
#470000
1!
0$
1,
#480000
0!
1$
0,
#490000
1!
0$
1,
#500000
0!
1$
0,
#510000
1!
0$
1,
#520000
0!
1$
0,
#530000
1!
0$
1,
#540000
0!
1$
0,
#550000
1!
0$
1,
#560000
0!
1$
0,
#570000
1!
0$
1,
#580000
0!
1$
0,
#590000
1!
0$
1,
#600000
0!
1$
0,
#610000
1!
0$
1,
#620000
0!
1$
0,
#630000
1!
0$
1,
#640000
0!
1$
0,
#650000
1!
0$
1,
#660000
0!
1$
0,
#670000
1!
0$
1,
#680000
0!
1$
0,
#690000
1!
0$
1,
#700000
0!
1$
0,
#710000
1!
0$
1,
#720000
0!
1$
0,
#730000
1!
0$
1,
#740000
0!
1$
0,
#750000
1!
0$
1,
#760000
0!
1$
0,
#770000
1!
0$
1,
#780000
0!
1$
0,
#790000
1!
0$
1,
#800000
0!
1$
0,
#810000
1!
0$
1,
#820000
0!
1$
0,
#830000
1!
0$
1,
#840000
0!
1$
0,
#850000
1!
0$
1,
#860000
0!
1$
0,
#870000
1!
0$
1,
#880000
0!
1$
0,
#890000
1!
0$
1,
#900000
0!
1$
0,
#910000
1!
0$
1,
#920000
0!
1$
0,
#930000
1!
0$
1,
#940000
0!
1$
0,
#950000
1!
0$
1,
#960000
0!
1$
0,
#970000
1!
0$
1,
#980000
0!
1$
0,
#990000
1!
0$
1,
