Lab 3/simulation/qsim/Lab3.msim.vcd
$comment
	File created using the following command:
		vcd file Lab3.msim.vcd -direction
$end
$date
	Wed Oct  2 18:21:22 2024
$end
$version
	ModelSim Version 10.3d
$end
$timescale
	1ps
$end

$scope module Lab3_vlg_vec_tst $end
$var reg 1 ! inputD0 $end
$var reg 1 " inputD1 $end
$var reg 1 # inputD2 $end
$var reg 1 $ inputD3 $end
$var wire 1 % outputSa $end
$var wire 1 & outputSb $end
$var wire 1 ' outputSc $end
$var wire 1 ( outputSd $end
$var wire 1 ) outputSe $end
$var wire 1 * outputSf $end
$var wire 1 + outputSg $end
$var wire 1 , sampler $end

$scope module i1 $end
$var wire 1 - gnd $end
$var wire 1 . vcc $end
$var wire 1 / unknown $end
$var tri1 1 0 devclrn $end
$var tri1 1 1 devpor $end
$var tri1 1 2 devoe $end
$var wire 1 3 outputSg~output_o $end
$var wire 1 4 outputSf~output_o $end
$var wire 1 5 outputSe~output_o $end
$var wire 1 6 outputSd~output_o $end
$var wire 1 7 outputSc~output_o $end
$var wire 1 8 outputSb~output_o $end
$var wire 1 9 outputSa~output_o $end
$var wire 1 : inputD1~input_o $end
$var wire 1 ; inputD0~input_o $end
$var wire 1 < inputD2~input_o $end
$var wire 1 = inputD3~input_o $end
$var wire 1 > inst8~0_combout $end
$var wire 1 ? inst15~0_combout $end
$var wire 1 @ inst19~combout $end
$var wire 1 A inst25~0_combout $end
$var wire 1 B inst33~0_combout $end
$var wire 1 C inst37~0_combout $end
$var wire 1 D inst42~0_combout $end
$upscope $end
$upscope $end
$enddefinitions $end
#0
$dumpvars
0!
0"
0#
0$
0%
1&
1'
1(
1)
1*
0+
x,
0-
1.
x/
10
11
12
03
14
15
16
17
18
09
0:
0;
0<
0=
0>
1?
1@
1A
1B
1C
0D
$end
#5000
1$
1=
0,
1D
0A
0?
04
06
19
0*
0(
1%
#10000
1#
0$
1<
0=
1,
0B
1A
1>
13
16
07
1+
1(
0'
#15000
1$
1=
0,
0A
0>
03
06
0+
0(
#20000
1"
0#
0$
1:
0<
0=
1,
1B
1A
1?
1>
13
14
16
17
1+
1*
1(
1'
#25000
1$
1=
0,
0D
0A
0?
0>
03
04
06
09
0+
0*
0(
0%
#30000
1#
0$
1<
0=
1,
0B
1A
16
07
1(
0'
#35000
1$
1=
0,
1D
0A
06
19
0(
1%
#40000
1!
0"
0#
0$
1;
0:
0<
0=
1,
0D
0C
1B
0@
1?
1>
13
14
05
17
08
09
1+
1*
0)
1'
0&
0%
#45000
1$
1=
0,
1D
1C
1@
0?
0>
03
04
15
18
19
0+
0*
1)
1&
1%
#50000
1#
0$
1<
0=
1,
0B
1A
0@
1>
13
05
16
07
1+
0)
1(
0'
#55000
1$
1=
0,
1B
0A
1?
0>
03
14
06
17
0+
1*
0(
1'
#60000
1"
0#
0$
1:
0<
0=
1,
0C
0B
1@
1>
13
15
07
08
1+
1)
0'
0&
#65000
1$
1=
0,
1B
0@
0?
0>
03
04
05
17
0+
0*
0)
1'
#70000
1#
0$
1<
0=
1,
0D
1A
1?
1>
13
14
16
09
1+
1*
1(
0%
#75000
1$
1=
0,
0>
03
0+
#80000
0!
0"
0#
0$
0;
0:
0<
0=
1,
1C
1@
15
18
1)
1&
#85000
1$
1=
0,
1D
0A
0?
04
06
19
0*
0(
1%
#90000
1#
0$
1<
0=
1,
0B
1A
1>
13
16
07
1+
1(
0'
#95000
1$
1=
0,
0A
0>
03
06
0+
0(
#100000
1"
0#
0$
1:
0<
0=
1,
1B
1A
1?
1>
13
14
16
17
1+
1*
1(
1'
#105000
1$
1=
0,
0D
0A
0?
0>
03
04
06
09
0+
0*
0(
0%
#110000
1#
0$
1<
0=
1,
0B
1A
16
07
1(
0'
#115000
1$
1=
0,
1D
0A
06
19
0(
1%
#120000
1!
0"
0#
0$
1;
0:
0<
0=
1,
0D
0C
1B
0@
1?
1>
13
14
05
17
08
09
1+
1*
0)
1'
0&
0%
#125000
1$
1=
0,
1D
1C
1@
0?
0>
03
04
15
18
19
0+
0*
1)
1&
1%
#130000
1#
0$
1<
0=
1,
0B
1A
0@
1>
13
05
16
07
1+
0)
1(
0'
#135000
1$
1=
0,
1B
0A
1?
0>
03
14
06
17
0+
1*
0(
1'
#140000
1"
0#
0$
1:
0<
0=
1,
0C
0B
1@
1>
13
15
07
08
1+
1)
0'
0&
#145000
1$
1=
0,
1B
0@
0?
0>
03
04
05
17
0+
0*
0)
1'
#150000
1#
0$
1<
0=
1,
0D
1A
1?
1>
13
14
16
09
1+
1*
1(
0%
#155000
1$
1=
0,
0>
03
0+
#160000
0!
0"
0#
0$
0;
0:
0<
0=
1,
1C
1@
15
18
1)
1&
#165000
1$
1=
0,
1D
0A
0?
04
06
19
0*
0(
1%
#170000
1#
0$
1<
0=
1,
0B
1A
1>
13
16
07
1+
1(
0'
#175000
1$
1=
0,
0A
0>
03
06
0+
0(
#180000
1"
0#
0$
1:
0<
0=
1,
1B
1A
1?
1>
13
14
16
17
1+
1*
1(
1'
#185000
1$
1=
0,
0D
0A
0?
0>
03
04
06
09
0+
0*
0(
0%
#190000
1#
0$
1<
0=
1,
0B
1A
16
07
1(
0'
#195000
1$
1=
0,
1D
0A
06
19
0(
1%
#200000
1!
0"
0#
0$
1;
0:
0<
0=
1,
0D
0C
1B
0@
1?
1>
13
14
05
17
08
09
1+
1*
0)
1'
0&
0%
#205000
1$
1=
0,
1D
1C
1@
0?
0>
03
04
15
18
19
0+
0*
1)
1&
1%
#210000
1#
0$
1<
0=
1,
0B
1A
0@
1>
13
05
16
07
1+
0)
1(
0'
#215000
1$
1=
0,
1B
0A
1?
0>
03
14
06
17
0+
1*
0(
1'
#220000
1"
0#
0$
1:
0<
0=
1,
0C
0B
1@
1>
13
15
07
08
1+
1)
0'
0&
#225000
1$
1=
0,
1B
0@
0?
0>
03
04
05
17
0+
0*
0)
1'
#230000
1#
0$
1<
0=
1,
0D
1A
1?
1>
13
14
16
09
1+
1*
1(
0%
#235000
1$
1=
0,
0>
03
0+
#240000
0!
0"
0#
0$
0;
0:
0<
0=
1,
1C
1@
15
18
1)
1&
#245000
1$
1=
0,
1D
0A
0?
04
06
19
0*
0(
1%
#250000
1#
0$
1<
0=
1,
0B
1A
1>
13
16
07
1+
1(
0'
#255000
1$
1=
0,
0A
0>
03
06
0+
0(
#260000
1"
0#
0$
1:
0<
0=
1,
1B
1A
1?
1>
13
14
16
17
1+
1*
1(
1'
#265000
1$
1=
0,
0D
0A
0?
0>
03
04
06
09
0+
0*
0(
0%
#270000
1#
0$
1<
0=
1,
0B
1A
16
07
1(
0'
#275000
1$
1=
0,
1D
0A
06
19
0(
1%
#280000
1!
0"
0#
0$
1;
0:
0<
0=
1,
0D
0C
1B
0@
1?
1>
13
14
05
17
08
09
1+
1*
0)
1'
0&
0%
#285000
1$
1=
0,
1D
1C
1@
0?
0>
03
04
15
18
19
0+
0*
1)
1&
1%
#290000
1#
0$
1<
0=
1,
0B
1A
0@
1>
13
05
16
07
1+
0)
1(
0'
#295000
1$
1=
0,
1B
0A
1?
0>
03
14
06
17
0+
1*
0(
1'
#300000
1"
0#
0$
1:
0<
0=
1,
0C
0B
1@
1>
13
15
07
08
1+
1)
0'
0&
#305000
1$
1=
0,
1B
0@
0?
0>
03
04
05
17
0+
0*
0)
1'
#310000
1#
0$
1<
0=
1,
0D
1A
1?
1>
13
14
16
09
1+
1*
1(
0%
#315000
1$
1=
0,
0>
03
0+
#320000
0!
0"
0#
0$
0;
0:
0<
0=
1,
1C
1@
15
18
1)
1&
#325000
1$
1=
0,
1D
0A
0?
04
06
19
0*
0(
1%
#330000
1#
0$
1<
0=
1,
0B
1A
1>
13
16
07
1+
1(
0'
#335000
1$
1=
0,
0A
0>
03
06
0+
0(
#340000
1"
0#
0$
1:
0<
0=
1,
1B
1A
1?
1>
13
14
16
17
1+
1*
1(
1'
#345000
1$
1=
0,
0D
0A
0?
0>
03
04
06
09
0+
0*
0(
0%
#350000
1#
0$
1<
0=
1,
0B
1A
16
07
1(
0'
#355000
1$
1=
0,
1D
0A
06
19
0(
1%
#360000
1!
0"
0#
0$
1;
0:
0<
0=
1,
0D
0C
1B
0@
1?
1>
13
14
05
17
08
09
1+
1*
0)
1'
0&
0%
#365000
1$
1=
0,
1D
1C
1@
0?
0>
03
04
15
18
19
0+
0*
1)
1&
1%
#370000
1#
0$
1<
0=
1,
0B
1A
0@
1>
13
05
16
07
1+
0)
1(
0'
#375000
1$
1=
0,
1B
0A
1?
0>
03
14
06
17
0+
1*
0(
1'
#380000
1"
0#
0$
1:
0<
0=
1,
0C
0B
1@
1>
13
15
07
08
1+
1)
0'
0&
#385000
1$
1=
0,
1B
0@
0?
0>
03
04
05
17
0+
0*
0)
1'
#390000
1#
0$
1<
0=
1,
0D
1A
1?
1>
13
14
16
09
1+
1*
1(
0%
#395000
1$
1=
0,
0>
03
0+
#400000
0!
0"
0#
0$
0;
0:
0<
0=
1,
1C
1@
15
18
1)
1&
#405000
1$
1=
0,
1D
0A
0?
04
06
19
0*
0(
1%
#410000
1#
0$
1<
0=
1,
0B
1A
1>
13
16
07
1+
1(
0'
#415000
1$
1=
0,
0A
0>
03
06
0+
0(
#420000
1"
0#
0$
1:
0<
0=
1,
1B
1A
1?
1>
13
14
16
17
1+
1*
1(
1'
#425000
1$
1=
0,
0D
0A
0?
0>
03
04
06
09
0+
0*
0(
0%
#430000
1#
0$
1<
0=
1,
0B
1A
16
07
1(
0'
#435000
1$
1=
0,
1D
0A
06
19
0(
1%
#440000
1!
0"
0#
0$
1;
0:
0<
0=
1,
0D
0C
1B
0@
1?
1>
13
14
05
17
08
09
1+
1*
0)
1'
0&
0%
#445000
1$
1=
0,
1D
1C
1@
0?
0>
03
04
15
18
19
0+
0*
1)
1&
1%
#450000
1#
0$
1<
0=
1,
0B
1A
0@
1>
13
05
16
07
1+
0)
1(
0'
#455000
1$
1=
0,
1B
0A
1?
0>
03
14
06
17
0+
1*
0(
1'
#460000
1"
0#
0$
1:
0<
0=
1,
0C
0B
1@
1>
13
15
07
08
1+
1)
0'
0&
#465000
1$
1=
0,
1B
0@
0?
0>
03
04
05
17
0+
0*
0)
1'
#470000
1#
0$
1<
0=
1,
0D
1A
1?
1>
13
14
16
09
1+
1*
1(
0%
#475000
1$
1=
0,
0>
03
0+
#480000
0!
0"
0#
0$
0;
0:
0<
0=
1,
1C
1@
15
18
1)
1&
#485000
1$
1=
0,
1D
0A
0?
04
06
19
0*
0(
1%
#490000
1#
0$
1<
0=
1,
0B
1A
1>
13
16
07
1+
1(
0'
#495000
1$
1=
0,
0A
0>
03
06
0+
0(
#500000
1"
0#
0$
1:
0<
0=
1,
1B
1A
1?
1>
13
14
16
17
1+
1*
1(
1'
#505000
1$
1=
0,
0D
0A
0?
0>
03
04
06
09
0+
0*
0(
0%
#510000
1#
0$
1<
0=
1,
0B
1A
16
07
1(
0'
#515000
1$
1=
0,
1D
0A
06
19
0(
1%
#520000
1!
0"
0#
0$
1;
0:
0<
0=
1,
0D
0C
1B
0@
1?
1>
13
14
05
17
08
09
1+
1*
0)
1'
0&
0%
#525000
1$
1=
0,
1D
1C
1@
0?
0>
03
04
15
18
19
0+
0*
1)
1&
1%
#530000
1#
0$
1<
0=
1,
0B
1A
0@
1>
13
05
16
07
1+
0)
1(
0'
#535000
1$
1=
0,
1B
0A
1?
0>
03
14
06
17
0+
1*
0(
1'
#540000
1"
0#
0$
1:
0<
0=
1,
0C
0B
1@
1>
13
15
07
08
1+
1)
0'
0&
#545000
1$
1=
0,
1B
0@
0?
0>
03
04
05
17
0+
0*
0)
1'
#550000
1#
0$
1<
0=
1,
0D
1A
1?
1>
13
14
16
09
1+
1*
1(
0%
#555000
1$
1=
0,
0>
03
0+
#560000
0!
0"
0#
0$
0;
0:
0<
0=
1,
1C
1@
15
18
1)
1&
#565000
1$
1=
0,
1D
0A
0?
04
06
19
0*
0(
1%
#570000
1#
0$
1<
0=
1,
0B
1A
1>
13
16
07
1+
1(
0'
#575000
1$
1=
0,
0A
0>
03
06
0+
0(
#580000
1"
0#
0$
1:
0<
0=
1,
1B
1A
1?
1>
13
14
16
17
1+
1*
1(
1'
#585000
1$
1=
0,
0D
0A
0?
0>
03
04
06
09
0+
0*
0(
0%
#590000
1#
0$
1<
0=
1,
0B
1A
16
07
1(
0'
#595000
1$
1=
0,
1D
0A
06
19
0(
1%
#600000
1!
0"
0#
0$
1;
0:
0<
0=
1,
0D
0C
1B
0@
1?
1>
13
14
05
17
08
09
1+
1*
0)
1'
0&
0%
#605000
1$
1=
0,
1D
1C
1@
0?
0>
03
04
15
18
19
0+
0*
1)
1&
1%
#610000
1#
0$
1<
0=
1,
0B
1A
0@
1>
13
05
16
07
1+
0)
1(
0'
#615000
1$
1=
0,
1B
0A
1?
0>
03
14
06
17
0+
1*
0(
1'
#620000
1"
0#
0$
1:
0<
0=
1,
0C
0B
1@
1>
13
15
07
08
1+
1)
0'
0&
#625000
1$
1=
0,
1B
0@
0?
0>
03
04
05
17
0+
0*
0)
1'
#630000
1#
0$
1<
0=
1,
0D
1A
1?
1>
13
14
16
09
1+
1*
1(
0%
#635000
1$
1=
0,
0>
03
0+
#640000
0!
0"
0#
0$
0;
0:
0<
0=
1,
1C
1@
15
18
1)
1&
#645000
1$
1=
0,
1D
0A
0?
04
06
19
0*
0(
1%
#650000
1#
0$
1<
0=
1,
0B
1A
1>
13
16
07
1+
1(
0'
#655000
1$
1=
0,
0A
0>
03
06
0+
0(
#660000
1"
0#
0$
1:
0<
0=
1,
1B
1A
1?
1>
13
14
16
17
1+
1*
1(
1'
#665000
1$
1=
0,
0D
0A
0?
0>
03
04
06
09
0+
0*
0(
0%
#670000
1#
0$
1<
0=
1,
0B
1A
16
07
1(
0'
#675000
1$
1=
0,
1D
0A
06
19
0(
1%
#680000
1!
0"
0#
0$
1;
0:
0<
0=
1,
0D
0C
1B
0@
1?
1>
13
14
05
17
08
09
1+
1*
0)
1'
0&
0%
#685000
1$
1=
0,
1D
1C
1@
0?
0>
03
04
15
18
19
0+
0*
1)
1&
1%
#690000
1#
0$
1<
0=
1,
0B
1A
0@
1>
13
05
16
07
1+
0)
1(
0'
#695000
1$
1=
0,
1B
0A
1?
0>
03
14
06
17
0+
1*
0(
1'
#700000
1"
0#
0$
1:
0<
0=
1,
0C
0B
1@
1>
13
15
07
08
1+
1)
0'
0&
#705000
1$
1=
0,
1B
0@
0?
0>
03
04
05
17
0+
0*
0)
1'
#710000
1#
0$
1<
0=
1,
0D
1A
1?
1>
13
14
16
09
1+
1*
1(
0%
#715000
1$
1=
0,
0>
03
0+
#720000
0!
0"
0#
0$
0;
0:
0<
0=
1,
1C
1@
15
18
1)
1&
#725000
1$
1=
0,
1D
0A
0?
04
06
19
0*
0(
1%
#730000
1#
0$
1<
0=
1,
0B
1A
1>
13
16
07
1+
1(
0'
#735000
1$
1=
0,
0A
0>
03
06
0+
0(
#740000
1"
0#
0$
1:
0<
0=
1,
1B
1A
1?
1>
13
14
16
17
1+
1*
1(
1'
#745000
1$
1=
0,
0D
0A
0?
0>
03
04
06
09
0+
0*
0(
0%
#750000
1#
0$
1<
0=
1,
0B
1A
16
07
1(
0'
#755000
1$
1=
0,
1D
0A
06
19
0(
1%
#760000
1!
0"
0#
0$
1;
0:
0<
0=
1,
0D
0C
1B
0@
1?
1>
13
14
05
17
08
09
1+
1*
0)
1'
0&
0%
#765000
1$
1=
0,
1D
1C
1@
0?
0>
03
04
15
18
19
0+
0*
1)
1&
1%
#770000
1#
0$
1<
0=
1,
0B
1A
0@
1>
13
05
16
07
1+
0)
1(
0'
#775000
1$
1=
0,
1B
0A
1?
0>
03
14
06
17
0+
1*
0(
1'
#780000
1"
0#
0$
1:
0<
0=
1,
0C
0B
1@
1>
13
15
07
08
1+
1)
0'
0&
#785000
1$
1=
0,
1B
0@
0?
0>
03
04
05
17
0+
0*
0)
1'
#790000
1#
0$
1<
0=
1,
0D
1A
1?
1>
13
14
16
09
1+
1*
1(
0%
#795000
1$
1=
0,
0>
03
0+
#800000
0!
0"
0#
0$
0;
0:
0<
0=
1,
1C
1@
15
18
1)
1&
#805000
1$
1=
0,
1D
0A
0?
04
06
19
0*
0(
1%
#810000
1#
0$
1<
0=
1,
0B
1A
1>
13
16
07
1+
1(
0'
#815000
1$
1=
0,
0A
0>
03
06
0+
0(
#820000
1"
0#
0$
1:
0<
0=
1,
1B
1A
1?
1>
13
14
16
17
1+
1*
1(
1'
#825000
1$
1=
0,
0D
0A
0?
0>
03
04
06
09
0+
0*
0(
0%
#830000
1#
0$
1<
0=
1,
0B
1A
16
07
1(
0'
#835000
1$
1=
0,
1D
0A
06
19
0(
1%
#840000
1!
0"
0#
0$
1;
0:
0<
0=
1,
0D
0C
1B
0@
1?
1>
13
14
05
17
08
09
1+
1*
0)
1'
0&
0%
#845000
1$
1=
0,
1D
1C
1@
0?
0>
03
04
15
18
19
0+
0*
1)
1&
1%
#850000
1#
0$
1<
0=
1,
0B
1A
0@
1>
13
05
16
07
1+
0)
1(
0'
#855000
1$
1=
0,
1B
0A
1?
0>
03
14
06
17
0+
1*
0(
1'
#860000
1"
0#
0$
1:
0<
0=
1,
0C
0B
1@
1>
13
15
07
08
1+
1)
0'
0&
#865000
1$
1=
0,
1B
0@
0?
0>
03
04
05
17
0+
0*
0)
1'
#870000
1#
0$
1<
0=
1,
0D
1A
1?
1>
13
14
16
09
1+
1*
1(
0%
#875000
1$
1=
0,
0>
03
0+
#880000
0!
0"
0#
0$
0;
0:
0<
0=
1,
1C
1@
15
18
1)
1&
#885000
1$
1=
0,
1D
0A
0?
04
06
19
0*
0(
1%
#890000
1#
0$
1<
0=
1,
0B
1A
1>
13
16
07
1+
1(
0'
#895000
1$
1=
0,
0A
0>
03
06
0+
0(
#900000
1"
0#
0$
1:
0<
0=
1,
1B
1A
1?
1>
13
14
16
17
1+
1*
1(
1'
#905000
1$
1=
0,
0D
0A
0?
0>
03
04
06
09
0+
0*
0(
0%
#910000
1#
0$
1<
0=
1,
0B
1A
16
07
1(
0'
#915000
1$
1=
0,
1D
0A
06
19
0(
1%
#920000
1!
0"
0#
0$
1;
0:
0<
0=
1,
0D
0C
1B
0@
1?
1>
13
14
05
17
08
09
1+
1*
0)
1'
0&
0%
#925000
1$
1=
0,
1D
1C
1@
0?
0>
03
04
15
18
19
0+
0*
1)
1&
1%
#930000
1#
0$
1<
0=
1,
0B
1A
0@
1>
13
05
16
07
1+
0)
1(
0'
#935000
1$
1=
0,
1B
0A
1?
0>
03
14
06
17
0+
1*
0(
1'
#940000
1"
0#
0$
1:
0<
0=
1,
0C
0B
1@
1>
13
15
07
08
1+
1)
0'
0&
#945000
1$
1=
0,
1B
0@
0?
0>
03
04
05
17
0+
0*
0)
1'
#950000
1#
0$
1<
0=
1,
0D
1A
1?
1>
13
14
16
09
1+
1*
1(
0%
#955000
1$
1=
0,
0>
03
0+
#960000
0!
0"
0#
0$
0;
0:
0<
0=
1,
1C
1@
15
18
1)
1&
#965000
1$
1=
0,
1D
0A
0?
04
06
19
0*
0(
1%
#970000
1#
0$
1<
0=
1,
0B
1A
1>
13
16
07
1+
1(
0'
#975000
1$
1=
0,
0A
0>
03
06
0+
0(
#980000
1"
0#
0$
1:
0<
0=
1,
1B
1A
1?
1>
13
14
16
17
1+
1*
1(
1'
#985000
1$
1=
0,
0D
0A
0?
0>
03
04
06
09
0+
0*
0(
0%
#990000
1#
0$
1<
0=
1,
0B
1A
16
07
1(
0'
#995000
1$
1=
0,
1D
0A
06
19
0(
1%
